{
  "data": [
    {
      "id": 1,
      "img": "images/benefitapp_logo/1-ninepj.png",
      "title": "爱威奶",
      "url": "https://night14.icu/?utm_source=ssb&channelCode=ssbnine",
      "pin": false,
      "sort": 1
    },
    {
      "id": 2,
      "img": "images/benefitapp_logo/2-jjkkpj.png",
      "title": "健健康康",
      "url": "https://health6.icu/?utm_source=ssb&channelCode=ssbjk",
      "pin": false,
      "sort": 2
    },
    {
      "id": 3,
      "img": "images/benefitapp_logo/3-ihpj.jpg",
      "title": "硬汉视频",
      "url": "https://in05.icu/?utm_source=ssb&channelCode=ssbih",
      "pin": false,
      "sort": 3
    },
    {
      "id": 4,
      "img": "images/benefitapp_logo/4-xqsp.png",
      "title": "星球视频",
      "url": "https://xqsp.me/?utm_source=ssb&channelCode=ssbxq",
      "pin": false,
      "sort": 4
    },
    {
      "id": 12,
      "img": "images/benefitapp_logo/12-dydy.png",
      "title": "抖淫",
      "url": "https://lihi1.com/wkOy6",
      "pin": false,
      "sort": 12
    },
    {
      "id": 13,
      "img": "images/benefitapp_logo/13-xmap.png",
      "title": "杏map",
      "url": "https://www.lanzous.com/i8td57c",
      "pin": false,
      "sort": 13
    },
    {
      "id": 14,
      "img": "images/benefitapp_logo/14-spvpn.png",
      "title": "赛风VPN",
      "url": "https://psiphon.ca/zh/index.html",
      "pin": false,
      "sort": 14
    },
    {
      "id": 15,
      "img": "images/benefitapp_logo/15-ccyyb.jpeg",
      "title": "此处应有本",
      "url": "https://lihi1.cc/KzXDz",
      "pin": false,
      "sort": 15
    },
    {
      "id": 17,
      "img": "images/benefitapp_logo/17-7sfish.png",
      "title": "七秒鱼",
      "url": "https://lihi1.cc/4PwT9",
      "pin": false,
      "sort": 17
    },
    {
      "id":18 ,
      "img": "images/benefitapp_logo/18-qmvpn.png",
      "title": "快喵VPN",
      "url": "https://www.lanzous.com/i8tcpsh",
      "pin": false,
      "sort": 18
    },
    {
      "id": 19,
      "img": "images/benefitapp_logo/19-lwvpn.png",
      "title": "老王VPN",
      "url": "https://www.lanzous.com/i8tcprg",
      "pin": false,
      "sort": 19
    },
    {
      "id": 24,
      "img": "images/benefitapp_logo/27-manhuaren.png",
      "title": "JAV",
      "url": "https://lihi1.cc/BonDP",
      "pin": false,
      "sort": 24
    },
    {
      "id": 25,
      "img": "images/benefitapp_logo/27-manhuaren.png",
      "title": "漫画人",
      "url": "https://lihi1.cc/BonDP",
      "pin": false,
      "sort": 25
    },
    {
      "id": 26,
      "img": "images/benefitapp_logo/27-manhuaren.png",
      "title": "漫画人",
      "url": "https://lihi1.cc/BonDP",
      "pin": false,
      "sort": 26
    },
    {
      "id": 27,
      "img": "images/fake_logo/icon-g15.jpg",
      "title": "女主脱衣陪玩",
      "url": "http://www.njxuyao.com/index.jsp?sk=eyJwIjoienoiLCJjIjoiNjAwMjgyIiwicyI6IjI3In0%3D",
      "pin": true,
      "sort": 3
    },
    {
      "id": 29,
      "img": "images/benefitapp_logo/29-setting.png",
      "title": "AV电视",
      "url": "https://iwantavnow.com/tw.php",
      "pin": false,
      "sort": 29
    },

    {
      "id": 31,
      "img": "images/benefitapp_logo/31-lutube.png",
      "title": "lutube",
      "url": "https://lihi1.cc/4PwT9",
      "pin": false,
      "sort": 31
    },
    {
      "id": 32,
      "img": "images/benefitapp_logo/32-91mh.png",
      "title": "91漫画",
      "url": "https://a.wuking.me/",
      "pin": false,
      "sort": 32
    },
    {
      "id": 33,
      "img": "images/benefitapp_logo/33-avbobo.jpg",
      "title": "AVBoBo",
      "url": "https://w2.xxxbcc1.com/",
      "pin": false,
      "sort": 33
    },
    {
      "id": 34,
      "img": "images/benefitapp_logo/34-FuLao2.jpeg",
      "title": "FuLao2",
      "url": "https://yungoumall.cn/",
      "pin": false,
      "sort": 34
    },
    {
      "id": 35,
      "img": "images/fake_logo/6.gif",
      "title": "丝瓜视频破解",
      "url": "https://xmbs.icu/xmdh340",
      "pin": true,
      "sort": 2
    },
    {
      "id": 37,
      "img": "images/benefitapp_logo/37-69hot.png",
      "title": "69视频",
      "url": "https://www.69sp2.app/",
      "pin": false,
      "sort": 37
    },
    {
      "id": 39,
      "img": "images/benefitapp_logo/39-firetv.jpg",
      "title": "灭火卫视",
      "url": "https://miehuo.tv/",
      "pin": false,
      "sort": 39
    },
    {
      "id": 40,
      "img": "images/benefitapp_logo/40-jav101.png",
      "title": "jav101",
      "url": "https://member.jav101.com/download#_ga=2.241732042.910635557.1582796033-854287266.1582796033",
      "pin": false,
      "sort": 40
    },
    {
      "id": 42,
      "img": "images/benefitapp_logo/42-91Porn.jpg",
      "title": "91Porn",
      "url": "http://app.91porn005.me:2082/",
      "pin": false,
      "sort": 42
    },
    {
      "id": 43,
      "img": "images/benefitapp_logo/43-asia-online.png",
      "title": "亚博直播",
      "url": "https://knpbnews.com/",
      "pin": false,
      "sort": 43
    },
    {
      "id": 44,
      "img": "images/benefitapp_logo/44-banana.png",
      "title": "香蕉视频",
      "url": "https://www.aa2.app/",
      "pin": false,
      "sort": 44
    },
    {
      "id": 45,
      "img": "images/benefitapp_logo/45-bicard.png",
      "title": "嗶咔漫画",
      "url": "https://www.picaacg.com/",
      "pin": false,
      "sort": 45
    },
    {
      "id": 46,
      "img": "images/benefitapp_logo/46-bingwave.png",
      "title": "大波浪",
      "url": "https://03kz.com/",
      "pin": false,
      "sort": 46
    },
    {
      "id": 47,
      "img": "images/benefitapp_logo/47-book.png",
      "title": "小黄书",
      "url": "http://share.hnovel.me/download?invite_code=XS8888&channel=official&from=qrcode",
      "pin": false,
      "sort": 47
    },
    {
      "id": 48,
      "img": "images/benefitapp_logo/48-cat.jpg",
      "title": "花猫视频",
      "url": "https://www.xmmbsg.com/",
      "pin": false,
      "sort": 48
    },
    {
      "id": 49,
      "img": "images/benefitapp_logo/49-cate.png",
      "title": "成人快猫",
      "url": "https://lihi2.cc/G8No4",
      "pin": false,
      "sort": 49
    },
    {
      "id": 50,
      "img": "images/benefitapp_logo/50-cl99.png",
      "title": "草榴社区",
      "url": "https://www.clxxx.me/",
      "pin": false,
      "sort": 50
    },
    {
      "id": 51,
      "img": "images/benefitapp_logo/51-dfhav.png",
      "title": "大番号",
      "url": "https://22dfh.site",
      "pin": false,
      "sort": 51
    },
    {
      "id": 52,
      "img": "images/benefitapp_logo/52-eggplant.jpg",
      "title": "茄子视频",
      "url": "https://qieziapp3.com/",
      "pin": false,
      "sort": 52
    },
    {
      "id": 53,
      "img": "images/benefitapp_logo/53-f2d.png",
      "title": "富二代",
      "url": "https://fed6.app/",
      "pin": false,
      "sort": 53
    },
    {
      "id": 54,
      "img": "images/benefitapp_logo/54-fish.png",
      "title": "金鱼直播",
      "url": "http://jy.tmzsyhj.xyz/m.html?topuserid=undefined",
      "pin": false,
      "sort": 54
    },
    {
      "id": 55,
      "img": "images/benefitapp_logo/55-flower.png",
      "title": "烟花巷",
      "url": "https://www.yanhuaxiang.top/",
      "pin": false,
      "sort": 55
    },
    {
      "id": 57,
      "img": "images/benefitapp_logo/57-hua.png",
      "title": "奶茶视频",
      "url": "http://www.nc22.app/index.html?app_key=ppotzc&code=31gj3aeX",
      "pin": false,
      "sort": 57
    },
    {
      "id": 58,
      "img": "images/benefitapp_logo/58-io.png",
      "title": "工口君",
      "url": "https://share.gongkoujun.me/download?invite_code=MH8888&channel=official&from=qrcode",
      "pin": false,
      "sort": 58
    },
    {
      "id": 59,
      "img": "images/benefitapp_logo/59-isiyu.png",
      "title": "爱私欲",
      "url": "http://share.lustai.me/",
      "pin": false,
      "sort": 59
    },
    {
      "id": 60,
      "img": "images/benefitapp_logo/60-jw99.png",
      "title": "九尾狐",
      "url": "https://jiuwei666.site",
      "pin": false,
      "sort": 60
    },
    {
      "id": 61,
      "img": "images/benefitapp_logo/61-lemon.png",
      "title": "柠檬视频",
      "url": "https://www.ruan8.com/down/2/56929",
      "pin": false,
      "sort": 61
    },
    {
      "id": 62,
      "img": "images/benefitapp_logo/62-long.jpeg",
      "title": "大长精",
      "url": "https://dcj6.site",
      "pin": false,
      "sort": 62
    },
    {
      "id": 63,
      "img": "images/benefitapp_logo/63-lovesea.jpeg",
      "title": "爱情海",
      "url": "https://ewt.xyz/assets/27iz.html",
      "pin": false,
      "sort": 63
    },
    {
      "id": 64,
      "img": "images/benefitapp_logo/64-lusir.png",
      "title": "嗨浪社区",
      "url": "http://vip.lusir027.com/",
      "pin": false,
      "sort": 64
    },
    {
      "id": 65,
      "img": "images/benefitapp_logo/65-mfanao.png",
      "title": "小棉袄",
      "url": "https://xmbs.icu/xmdh340",
      "pin": false,
      "sort": 65
    },
    {
      "id": 66,
      "img": "images/benefitapp_logo/66-mida.png",
      "title": "咪哒直播",
      "url": "https://lihi1.cc/PMHHU",
      "pin": false,
      "sort": 66
    },

    {
      "id": 67,
      "img": "images/benefitapp_logo/67-milk.png",
      "title": "豆奶视频",
      "url": "https://www.nklwmq.com",
      "pin": false,
      "sort": 67
    },
    {
      "id": 68,
      "img": "images/benefitapp_logo/68-mrlu.png",
      "title": "撸先生",
      "url": "https://aff.lulusir.me/",
      "pin": false,
      "sort": 68
    },
    {
      "id": 69,
      "img": "images/benefitapp_logo/69-mt.png",
      "title": "蜜桃视频",
      "url": "https://mt01.app/",
      "pin": false,
      "sort": 69
    },
    {
      "id": 70,
      "img": "images/benefitapp_logo/70-mushroom.jpg",
      "title": "蘑菇社区",
      "url": "https://mogu6.pw/",
      "pin": false,
      "sort": 70
    },
    {
      "id": 71,
      "img": "images/benefitapp_logo/71-patato.jpeg",
      "title": "土豆聊天",
      "url": "https://www.lanzous.com/i8tcr7i",
      "pin": false,
      "sort": 71
    },
    {
      "id": 72,
      "img": "images/benefitapp_logo/72-piapple.png",
      "title": "波罗社区",
      "url": "https://lihi2.cc/s8y81",
      "pin": false,
      "sort": 72
    },
    {
      "id": 73,
      "img": "images/benefitapp_logo/73-quickcat.png",
      "title": "破解快猫",
      "url": "https://lihi1.cc/rvTrt",
      "pin": false,
      "sort": 73
    },
    {
      "id": 74,
      "img": "images/benefitapp_logo/74-s.jpg",
      "title": "欧派动漫",
      "url": "https://www.lanzous.com/i4y5bsh",
      "pin": false,
      "sort": 74
    },
    {
      "id": 75,
      "img": "images/benefitapp_logo/75-sa.jpg",
      "title": "色中色",
      "url": "http://sis1.app/index.html?app_key=ag9nn7&code=cTEh3TTr",
      "pin": false,
      "sort": 8
    },
    {
      "id": 76,
      "img": "images/benefitapp_logo/76-selifan.png",
      "title": "涩里番",
      "url": "http://selifan.site/",
      "pin": false,
      "sort": 76
    },
    {
      "id": 77,
      "img": "images/benefitapp_logo/77-small-cute.jpg",
      "title": "小可爱",
      "url": "https://download.7flj.xyz/",
      "pin": false,
      "sort": 77
    },
    {
      "id": 78,
      "img": "images/benefitapp_logo/78-small-u.png",
      "title": "小优视频",
      "url": "http://qiezixxx.com/",
      "pin": false,
      "sort": 78
    },
    {
      "id": 79,
      "img": "images/benefitapp_logo/79-snow.png",
      "title": "咪雪直播",
      "url": "https://mxzb01.xyz/",
      "pin": false,
      "sort": 79
    },
    {
      "id": 80,
      "img": "images/benefitapp_logo/80-strawberry.jpg",
      "title": "草莓视频",
      "url": "http://cm888.tw/",
      "pin": false,
      "sort": 80
    },
    {
      "id": 81,
      "img": "images/benefitapp_logo/81-sweety.jpg",
      "title": "小甜心",
      "url": "http://live.bays.xyz/",
      "pin": false,
      "sort": 81
    },
    {
      "id": 82,
      "img": "images/benefitapp_logo/82-tiktalk.jpg",
      "title": "抖陰视频",
      "url": "http://app.doyin.me/",
      "pin": false,
      "sort": 82
    },
    {
      "id": 83,
      "img": "images/benefitapp_logo/83-tomato.jpg",
      "title": "番茄社区",
      "url": "https://share123.vip/",
      "pin": false,
      "sort": 83
    },
    {
      "id": 87,
      "img": "images/benefitapp_logo/87-lantern.png",
      "title": "蓝灯VPN",
      "url": "https://www.lanzous.com/i8tcpva",
      "pin": false,
      "sort": 87
    },
    {
      "id": 89,
      "img": "images/benefitapp_logo/89-telegram.png",
      "title": "纸飞机",
      "url": "https://www.lanzous.com/i8tcr8j",
      "pin": false,
      "sort": 89
    },
    {
      "id": 90,
      "img": "images/benefitapp_logo/90-yongtuo.jpg",
      "title": "羊驼视频",
      "url": "http://vip.lusir027.com/",
      "pin": false,
      "sort": 90
    },
    {
      "id": 91,
      "img": "images/benefitapp_logo/91-eggplantpj.jpg",
      "title": "茄子视频破解版",
      "url": "https://lihi1.cc/XqJC7",
      "pin": false,
      "sort": 91
    },
    {
      "id": 92,
      "img": "images/benefitapp_logo/92-91pornpj.png",
      "title": "91视频破解",
      "url": "https://lihi1.cc/m98Oq",
      "pin": false,
      "sort": 92
    },
    {
      "id": 93,
      "img": "images/benefitapp_logo/93-cherry.png",
      "title": "樱桃视频",
      "url": "https://lihi1.cc/6tViW",
      "pin": false,
      "sort": 93
    },
    {
      "id": 94,
      "img": "images/benefitapp_logo/94-douying.png",
      "title": "成人抖音",
      "url": "https://lihi1.cc/6tViW",
      "pin": false,
      "sort": 94
    },
    {
      "id": 95,
      "img": "images/fake_logo/icon-g16.jpg",
      "title": "av女优也在玩",
      "url": "https://kok26.app/?i_code=3854788",
      "pin": true,
      "sort": 1
    },
    {
      "id": 96,
      "img": "images/fake_logo/icon_g8.jpeg",
      "title": "淫妻APP",
      "url": "https://xfrs.xyz",
      "pin": true,
      "sort": 7
    },
    {
      "id": 97,
      "img": "images/benefitapp_logo/95-91shortvideo.jpg",
      "title": "91pron短视频",
      "url": "http://91porn-vip.com/?channelCode=A2",
      "pin": true,
      "sort": 4
    },
    {
      "id": 98,
      "img": "images/benefitapp_logo/96-t4.png",
      "title": "成人福利大全",
      "url": "http://quanqiuapp.vip/",
      "pin": true,
      "sort": 15
    }
  ]
}
