{
  "count": 513,
  "data": [
    {
      "img": "images/msg_icon/boy13.jpg",
      "name": "林**年",
      "words": "视频上的妹子正 奶又大 不错",
      "rating": "good",
      "ratingWord": "推荐"
    },
    {
      "img": "images/msg_icon/boy14.jpg",
      "name": "醉***啡",
      "words": "优质app 直播间的妹很正",
      "rating": "good",
      "ratingWord": "推荐"
    },
    {
      "img": "images/store_nine/img_profile3.jpg",
      "name": "忘***8",
      "words": "画面乾净 很多长片可以看",
      "rating": "good",
      "ratingWord": "推荐"
    },
    {
      "img": "images/store_nine/img_profile4.jpg",
      "name": "t***1",
      "words": "好 中字无码片很多",
      "rating": "good",
      "ratingWord": "推荐"
    },
    {
      "img": "images/store_nine/img_profile5.jpg",
      "name": "温***i",
      "words": "为了这个app 点点广告支持下",
      "rating": "good",
      "ratingWord": "推荐"
    },
    {
      "img": "images/store_nine/img_profile6.jpg",
      "name": "湘***1",
      "words": "直播妹子够骚够淫荡 推荐个",
      "rating": "good",
      "ratingWord": "推荐"
    },
    {
      "img": "images/store_nine/img_profile7.jpg",
      "name": "成***东",
      "words": "晚上可以开撸了",
      "rating": "good",
      "ratingWord": "推荐"
    },
    {
      "img": "images/store_nine/img_profile8.jpg",
      "name": "p***4",
      "words": "不装可惜 这app看片很顺",
      "rating": "good",
      "ratingWord": "推荐"
    },
    {
      "img": "images/store_nine/img_profile9.jpg",
      "name": "郭**盛",
      "words": "不用翻墙 刚用没广告",
      "rating": "good",
      "ratingWord": "推荐"
    },
    {
      "img": "images/store_nine/img_profile20.jpg",
      "name": "We***rc",
      "words": "女优奶大 硬了",
      "rating": "good",
      "ratingWord": "推荐"
    },
    {
      "img": "images/store_nine/img_profile10.jpg",
      "name": "RL***U",
      "words": "不错 看片速度很快",
      "rating": "good",
      "ratingWord": "推荐"
    },
    {
      "img": "images/store_nine/img_profile11.jpg",
      "name": "谢***帅",
      "words": "有群组可以聊骚吗",
      "rating": "good",
      "ratingWord": "推荐"
    },
    {
      "img": "images/store_nine/img_profile12.jpg",
      "name": "黄***6",
      "words": "用过感觉不错 装著晚上想撸就有",
      "rating": "good",
      "ratingWord": "推荐"
    },
    {
      "img": "images/store_nine/img_profile13.jpg",
      "name": "石***邻",
      "words": "看片很快 画面也简洁",
      "rating": "good",
      "ratingWord": "推荐"
    },
    {
      "img": "images/store_nine/img_profile14.jpg",
      "name": "hoI**C",
      "words": "完全免费 非常给力",
      "rating": "good",
      "ratingWord": "推荐"
    },
    {
      "img": "images/store_nine/img_profile15.jpg",
      "name": "T**yyy",
      "words": "好用 画面乾净",
      "rating": "good",
      "ratingWord": "推荐"
    },
    {
      "img": "images/store_nine/img_profile16.jpg",
      "name": "U**OY",
      "words": "女优片很多 好看",
      "rating": "good",
      "ratingWord": "推荐"
    },
    {
      "img": "images/store_nine/img_profile17.jpg",
      "name": "邱***童",
      "words": "日本长片居多 希望有更多欧美的",
      "rating": "normal",
      "ratingWord": "普通"
    },
    {
      "img": "images/msg_icon/girl14.jpg",
      "name": "uu**l",
      "words": "直播间妹子好看又骚",
      "rating": "good",
      "ratingWord": "推荐"
    },
    {
      "img": "iimages/msg_icon/boy15.jpg",
      "name": "w55***363",
      "words": "用了想打炮",
      "rating": "good",
      "ratingWord": "推荐"
    }
  ]
}