{
  "count": 996,
  "data": [
    {
      "img": "images/msg_icon/girl9.jpg",
      "name": "那***恋",
      "words": "咋看上个软件回头找就没了",
      "rating": "good",
      "ratingWord": "推荐"
    },
    {
      "img": "images/msg_icon/girl10.jpg",
      "name": "w***g",
      "words": "很好！老司机聚集地",
      "rating": "good",
      "ratingWord": "推荐"
    },
    {
      "img": "images/msg_icon/boy8.jpg",
      "name": "s***f",
      "words": "食色性也 没毒链接可以",
      "rating": "good",
      "ratingWord": "推荐"
    },
    {
      "img": "images/msg_icon/boy9.jpg",
      "name": "云***倚",
      "words": "今晚我们都是老司机",
      "rating": "good",
      "ratingWord": "推荐"
    },
    {
      "img": "images/msg_icon/girl28.jpg",
      "name": "陈***yy",
      "words": "加收藏了这站",
      "rating": "good",
      "ratingWord": "推荐"
    },
    {
      "img": "images/msg_icon/girl29.jpg",
      "name": "博***s",
      "words": "精品软件分享站",
      "rating": "good",
      "ratingWord": "推荐"
    },
    {
      "img": "images/store_nine/img_profile7.jpg",
      "name": "胖***淋",
      "words": "赞，，，，，，",
      "rating": "good",
      "ratingWord": "推荐"
    },
    {
      "img": "images/store_nine/img_profile8.jpg",
      "name": "梦***雨",
      "words": "有了这站 不怕鸡儿无聊了",
      "rating": "good",
      "ratingWord": "推荐"
    },
    {
      "img": "images/store_nine/img_profile9.jpg",
      "name": "郑**盛",
      "words": "好",
      "rating": "good",
      "ratingWord": "推荐"
    },
    {
      "img": "images/msg_icon/girl30.jpg",
      "name": "涂***吖",
      "words": "太好的站了",
      "rating": "good",
      "ratingWord": "推荐"
    },
    {
      "img": "images/store_nine/img_profile11.jpg",
      "name": "67**0",
      "words": "打开异世界的大门了",
      "rating": "good",
      "ratingWord": "推荐"
    },
    {
      "img": "images/msg_icon/boy27.jpg",
      "name": "谢***林",
      "words": "每个都勾人下载",
      "rating": "good",
      "ratingWord": "推荐"
    },
    {
      "img": "images/store_nine/img_profile13.jpg",
      "name": "曾***凯",
      "words": "还有没有啥老司机群介绍介绍",
      "rating": "good",
      "ratingWord": "推荐"
    },
    {
      "img": "images/msg_icon/boy28.jpg",
      "name": "蓝***时",
      "words": "加收藏了这站",
      "rating": "good",
      "ratingWord": "推荐"
    },
    {
      "img": "images/store_nine/img_profile15.jpg",
      "name": "罗***言",
      "words": " 不错 立马加入收藏",
      "rating": "good",
      "ratingWord": "推荐"
    },
    {
      "img": "images/store_nine/img_profile16.jpg",
      "name": "冷***花",
      "words": "网站很美观呢 用心！",
      "rating": "good",
      "ratingWord": "推荐"
    },
    {
      "img": "images/store_nine/img_profile17.jpg",
      "name": "杨***v",
      "words": "上车上车",
      "rating": "good",
      "ratingWord": "推荐"
    },
    {
      "img": "images/msg_icon/boy29.jpg",
      "name": "北***崽",
      "words": "熊猫巴士就是赞",
      "rating": "good",
      "ratingWord": "推荐"
    },
    {
      "img": "images/store_nine/img_profile19.jpg",
      "name": "小***1",
      "words": "不睡了不睡了",
      "rating": "good",
      "ratingWord": "推荐"
    },
    {
      "img": "images/msg_icon/boy30.jpg",
      "name": "夏***1",
      "words": "这还让不让人睡阿",
      "rating": "good",
      "ratingWord": "推荐"
    }
  ]
}